<?xml version="1.0" encoding="utf-8"?>
<!-- Generator: Adobe Illustrator 26.0.3, SVG Export Plug-In . SVG Version: 6.00 Build 0)  -->
<svg version="1.1" id="Calque_1" xmlns="http://www.w3.org/2000/svg" xmlns:xlink="http://www.w3.org/1999/xlink" x="0px" y="0px"
	 viewBox="0 0 24 24" enable-background="new 0 0 24 24" xml:space="preserve">
<g>
	<defs>
		<rect id="SVGID_1_" x="3" y="3.5" width="18" height="17"/>
	</defs>
	<clipPath id="SVGID_00000163068292393219665710000009472634745391566730_">
		<use xlink:href="#SVGID_1_"  overflow="visible"/>
	</clipPath>
	<g clip-path="url(#SVGID_00000163068292393219665710000009472634745391566730_)">
		<path fill="#767486" d="M21,9.9c0-0.1-0.1-0.3-0.3-0.4c-0.1-0.1-0.3-0.2-0.4-0.2l-5.2-0.8l-2.3-4.7c-0.1-0.1-0.2-0.2-0.3-0.3
			c-0.1-0.1-0.3-0.1-0.4-0.1c-0.1,0-0.3,0-0.4,0.1c-0.1,0.1-0.2,0.2-0.3,0.3L8.9,8.6L3.7,9.4c-0.2,0-0.3,0.1-0.4,0.2
			C3.2,9.6,3.1,9.8,3,9.9c0,0.1-0.1,0.3,0,0.4c0,0.1,0.1,0.3,0.2,0.4L7,14.4l-0.9,5.2c0,0.1,0,0.3,0,0.4c0.1,0.1,0.2,0.3,0.3,0.3
			c0.1,0.1,0.3,0.2,0.5,0.2c0.1,0,0.3,0,0.4-0.1L12,18l4.7,2.4c0.1,0.1,0.3,0.1,0.4,0.1c0.2,0,0.3-0.1,0.4-0.2
			c0.1-0.1,0.2-0.2,0.3-0.3c0.1-0.1,0.1-0.3,0-0.4L17,14.4l3.8-3.6c0.1-0.1,0.2-0.2,0.2-0.4S21,10.1,21,9.9z M15.5,13.5
			c-0.1,0.1-0.2,0.2-0.2,0.3c0,0.1-0.1,0.3,0,0.4l0.6,4l-3.6-1.9c-0.1-0.1-0.3-0.1-0.4-0.1s-0.3,0-0.4,0.1l-3.5,1.9l0.7-4
			c0-0.1,0-0.3,0-0.4s-0.1-0.2-0.2-0.3l-2.9-2.8l4-0.6c0.1,0,0.3-0.1,0.4-0.1c0.1-0.1,0.2-0.2,0.2-0.3L12,6.1l1.8,3.6
			c0.1,0.1,0.1,0.2,0.3,0.3c0.1,0.1,0.2,0.1,0.4,0.1l4,0.6L15.5,13.5z"/>
	</g>
</g>
</svg>
